metier,gender,nb,words
accountant,F,2034,"('account', 1844) ('busi', 1396) ('univers', 1005) ('financi', 925) ('financ', 645) ('ation', 538) ('ement', 536) ('compani', 517) ('enc', 459) ('public', 425) ('corpor', 410) ('degre', 402) ('firm', 329) ('hold', 325) ('industri', 308) ('audit', 307) ('state', 302) ('ice', 296) ('director', 289) ('board', 285) ('market', 278) ('graduat', 271) ('consult', 271) ('plan', 267) ('join', 253) ('prior', 246) ('administr', 241) ('journal', 236) ('bachelor', 235) ('provid', 229)"
accountant,M,3778,"('account', 2653) ('busi', 2417) ('financi', 1932) ('univers', 1701) ('financ', 1437) ('compani', 1253) ('ement', 1185) ('corpor', 1012) ('ation', 869) ('enc', 862) ('public', 785) ('firm', 775) ('director', 770) ('hold', 685) ('degre', 592) ('industri', 586) ('ice', 585) ('consult', 571) ('institut', 554) ('market', 549) ('board', 519) ('journal', 509) ('plan', 504) ('offic', 484) ('audit', 465) ('join', 457) ('econom', 451) ('associ', 447) ('bank', 439) ('state', 418)"
architect,F,1763,"('architectur', 1798) ('univers', 870) ('build', 564) ('technolog', 473) ('architect', 456) ('urban', 449) ('ation', 362) ('enc', 320) ('ment', 300) ('master', 290) ('sustain', 287) ('degre', 238) ('system', 236) ('plan', 234) ('institut', 228) ('public', 225) ('inform', 218) ('graduat', 207) ('interest', 204) ('engin', 200) ('ement', 193) ('citi', 190) ('construct', 185) ('hold', 174) ('energi', 173) ('hous', 158) ('scienc', 156) ('profession', 154) ('landscap', 154) ('process', 149)"
architect,M,5002,"('architectur', 4079) ('univers', 1793) ('technolog', 1593) ('architect', 1413) ('build', 1380) ('system', 1062) ('ment', 959) ('enc', 921) ('solut', 836) ('ation', 754) ('engin', 751) ('urban', 731) ('ement', 725) ('data', 695) ('institut', 617) ('industri', 550) ('microsoft', 543) ('inform', 538) ('master', 520) ('consult', 517) ('degre', 516) ('interest', 512) ('plan', 505) ('technic', 496) ('energi', 492) ('hold', 480) ('applic', 471) ('scienc', 466) ('busi', 465) ('base', 457)"
attorney,F,5848,"('univers', 3256) ('state', 2211) ('legal', 2104) ('court', 1884) ('litig', 1703) ('attorney', 1607) ('associ', 1599) ('graduat', 1319) ('repres', 1289) ('ation', 1218) ('degre', 1138) ('case', 1127) ('busi', 1088) ('enc', 969) ('district', 915) ('matter', 912) ('issu', 911) ('famili', 899) ('board', 886) ('california', 880) ('employ', 877) ('right', 874) ('counsel', 868) ('colleg', 866) ('public', 792) ('offic', 779) ('firm', 771) ('area', 766) ('feder', 762) ('counti', 749)"
attorney,M,9449,"('univers', 4209) ('state', 4002) ('litig', 3180) ('court', 3150) ('legal', 2663) ('repres', 2407) ('case', 2380) ('attorney', 2370) ('associ', 2204) ('busi', 2166) ('enc', 1823) ('graduat', 1766) ('trial', 1652) ('degre', 1593) ('matter', 1543) ('lawyer', 1519) ('feder', 1497) ('district', 1481) ('counsel', 1445) ('ation', 1390) ('firm', 1351) ('area', 1256) ('board', 1223) ('offic', 1197) ('issu', 1172) ('crimin', 1159) ('california', 1150) ('civil', 1143) ('estat', 1084) ('counti', 1081)"
chiropractor,F,2124,"('list', 3180) ('locat', 1588) ('reach', 1582) ('registri', 1552) ('blue', 1395) ('shield', 679) ('cross', 661) ('patient', 347) ('suit', 321) ('insur', 283) ('medic', 271) ('carrier', 268) ('ize', 233) ('mari', 230) ('univers', 224) ('bronz', 223) ('health', 201) ('affili', 169) ('star', 166) ('medicin', 163) ('rat', 151) ('hospit', 145) ('pain', 131) ('averag', 130) ('blvd', 119) ('addit', 117) ('chiro', 113) ('primarili', 113) ('physician', 108) ('nurs', 107)"
chiropractor,M,2196,"('blue', 4001) ('shield', 1929) ('cross', 1897) ('list', 1756) ('locat', 904) ('reach', 901) ('patient', 894) ('registri', 837) ('bronz', 677) ('insur', 670) ('carrier', 655) ('univers', 638) ('medic', 567) ('star', 486) ('affili', 472) ('medicin', 464) ('rat', 455) ('hospit', 435) ('health', 427) ('averag', 380) ('chiro', 348) ('pain', 330) ('graduat', 283) ('provid', 271) ('resid', 270) ('addit', 266) ('texa', 263) ('colleg', 256) ('profession', 248) ('clinic', 222)"
comedian,F,609,"('comedi', 447) ('festiv', 137) ('stand', 129) ('appear', 112) ('host', 96) ('show', 81) ('write', 81) ('televis', 81) ('best', 73) ('seri', 72) ('improv', 67) ('club', 66) ('women', 65) ('citi', 64) ('stori', 63) ('comedian', 61) ('funni', 58) ('featur', 57) ('night', 56) ('york', 56) ('comic', 54) ('star', 52) ('talk', 48) ('radio', 47) ('like', 46) ('laugh', 45) ('tour', 45) ('theatr', 45) ('sketch', 42) ('see', 41)"
comedian,M,1459,"('comedi', 1490) ('festiv', 399) ('stand', 380) ('appear', 309) ('comedian', 251) ('show', 230) ('comic', 207) ('club', 206) ('featur', 172) ('best', 167) ('laugh', 166) ('host', 162) ('write', 160) ('night', 157) ('star', 156) ('citi', 155) ('televis', 153) ('seri', 151) ('like', 150) ('tour', 150) ('audienc', 148) ('central', 147) ('funni', 131) ('improv', 125) ('film', 125) ('york', 123) ('radio', 121) ('start', 116) ('play', 114) ('stage', 112)"
composer,F,891,"('composit', 420) ('univers', 358) ('compos', 344) ('festiv', 219) ('ensembl', 208) ('orchestra', 205) ('theatr', 182) ('ation', 181) ('piano', 157) ('art', 156) ('anc', 153) ('sound', 151) ('colleg', 150) ('write', 148) ('record', 124) ('chamber', 116) ('opera', 114) ('symphoni', 113) ('degre', 111) ('voic', 104) ('film', 98) ('piec', 97) ('play', 97) ('concert', 92) ('director', 92) ('graduat', 92) ('york', 91) ('state', 90) ('artist', 87) ('commiss', 86)"
composer,M,3144,"('compos', 1431) ('composit', 1403) ('univers', 1041) ('orchestra', 657) ('film', 644) ('ensembl', 620) ('sound', 587) ('record', 556) ('score', 545) ('write', 460) ('festiv', 457) ('jazz', 451) ('piano', 450) ('ation', 435) ('band', 432) ('symphoni', 404) ('anc', 399) ('play', 380) ('colleg', 375) ('piec', 374) ('art', 369) ('instrument', 366) ('artist', 354) ('electron', 342) ('theatr', 330) ('classic', 322) ('state', 319) ('degre', 316) ('game', 311) ('opera', 307)"
dentist,F,1795,"('dental', 3581) ('complet', 1003) ('dentistri', 904) ('clinic', 781) ('doctor', 737) ('associ', 732) ('provid', 715) ('ice', 672) ('fix', 652) ('univers', 628) ('colleg', 572) ('tooth', 464) ('dentur', 428) ('patient', 421) ('hospit', 412) ('extract', 411) ('appoint', 406) ('dentist', 403) ('impact', 398) ('teeth', 394) ('care', 384) ('onlin', 345) ('lybrat', 343) ('crown', 321) ('indian', 318) ('partial', 312) ('implant', 296) ('bridg', 273) ('mumbai', 272) ('gener', 268)"
dentist,M,3053,"('dental', 5370) ('dentistri', 1574) ('complet', 1373) ('associ', 1163) ('clinic', 1150) ('provid', 1097) ('ice', 1059) ('dentist', 909) ('univers', 906) ('doctor', 903) ('fix', 898) ('patient', 818) ('appoint', 802) ('colleg', 731) ('teeth', 719) ('care', 700) ('onlin', 697) ('implant', 691) ('lybrat', 681) ('tooth', 680) ('hospit', 651) ('impact', 618) ('extract', 602) ('dentur', 600) ('oral', 588) ('surgeri', 586) ('enc', 567) ('gener', 546) ('indian', 462) ('crown', 459)"
dietitian,F,3090,"('nutrit', 3498) ('food', 1500) ('health', 1382) ('univers', 1316) ('medic', 1303) ('hospit', 1175) ('enc', 1172) ('graduat', 1124) ('clinic', 1097) ('inform', 1017) ('doctor', 1012) ('have', 940) ('divers', 937) ('honor', 928) ('appoint', 923) ('affili', 918) ('cooper', 914) ('ist', 908) ('advis', 907) ('dietet', 732) ('dietitian', 724) ('scienc', 665) ('psychologist', 633) ('join', 560) ('diet', 492) ('weight', 486) ('degre', 475) ('eat', 465) ('healthi', 463) ('complet', 450)"
dietitian,M,954,"('medic', 558) ('clinic', 546) ('doctor', 528) ('enc', 526) ('graduat', 525) ('inform', 519) ('hospit', 515) ('advis', 503) ('affili', 500) ('appoint', 500) ('divers', 499) ('have', 498) ('honor', 497) ('ist', 497) ('cooper', 496) ('psychologist', 469) ('nutrit', 428) ('food', 427) ('join', 317) ('health', 265) ('univers', 204) ('scienc', 115) ('diet', 105) ('diabet', 100) ('ation', 92) ('diseas', 75) ('ement', 75) ('david', 75) ('associ', 70) ('author', 61)"
dj,F,905,"('danc', 467) ('hous', 209) ('play', 170) ('club', 123) ('radio', 110) ('event', 110) ('start', 103) ('like', 94) ('produc', 93) ('ation', 92) ('artist', 75) ('citi', 73) ('write', 70) ('univers', 70) ('go', 68) ('compani', 64) ('ballet', 62) ('enc', 61) ('record', 58) ('call', 58) ('parti', 57) ('local', 54) ('product', 51) ('london', 48) ('begin', 47) ('friend', 47) ('help', 46) ('york', 46) ('ment', 46) ('anc', 45)"
dj,M,1940,"('hous', 536) ('play', 504) ('danc', 357) ('club', 351) ('record', 308) ('produc', 302) ('like', 280) ('radio', 269) ('start', 261) ('event', 248) ('parti', 238) ('sound', 214) ('track', 189) ('artist', 184) ('product', 167) ('scene', 158) ('citi', 149) ('releas', 148) ('style', 144) ('electron', 139) ('label', 136) ('ation', 124) ('resid', 121) ('begin', 120) ('local', 117) ('deep', 116) ('set', 113) ('london', 111) ('enc', 111) ('take', 108)"
filmmaker,F,1907,"('film', 3803) ('documentari', 1054) ('festiv', 961) ('produc', 603) ('univers', 591) ('short', 587) ('featur', 509) ('ation', 499) ('product', 487) ('direct', 441) ('media', 406) ('video', 382) ('filmmak', 366) ('screen', 338) ('director', 320) ('televis', 317) ('art', 299) ('write', 284) ('women', 277) ('cinema', 277) ('cultur', 244) ('stori', 230) ('best', 223) ('graduat', 222) ('york', 217) ('seri', 212) ('independ', 197) ('american', 197) ('win', 166) ('premier', 157)"
filmmaker,M,3253,"('film', 6462) ('festiv', 1375) ('documentari', 1267) ('short', 1050) ('featur', 1038) ('direct', 872) ('produc', 861) ('product', 782) ('univers', 712) ('video', 664) ('ation', 655) ('director', 619) ('filmmak', 586) ('write', 449) ('best', 446) ('televis', 435) ('media', 409) ('cinema', 398) ('art', 370) ('screen', 366) ('stori', 344) ('movi', 340) ('seri', 305) ('graduat', 303) ('york', 285) ('compani', 277) ('american', 268) ('edit', 264) ('make', 254) ('win', 253)"
interior_designer,F,1341,"('interior', 677) ('home', 632) ('space', 381) ('style', 220) ('enc', 209) ('residenti', 151) ('passion', 150) ('architectur', 148) ('famili', 138) ('ation', 138) ('beauti', 133) ('univers', 129) ('busi', 119) ('hous', 113) ('travel', 110) ('help', 108) ('profession', 107) ('inspir', 106) ('build', 103) ('furnitur', 101) ('enjoy', 100) ('magazin', 98) ('commerci', 97) ('environ', 97) ('degre', 96) ('live', 92) ('uniqu', 88) ('art', 86) ('modern', 85) ('place', 84)"
interior_designer,M,921,"('home', 377) ('space', 306) ('interior', 227) ('build', 130) ('style', 105) ('enc', 101) ('architectur', 101) ('residenti', 97) ('hous', 88) ('furnitur', 79) ('modern', 77) ('passion', 74) ('beauti', 69) ('commerci', 69) ('ation', 68) ('firm', 63) ('famili', 61) ('offic', 60) ('construct', 59) ('plan', 57) ('univers', 57) ('industri', 57) ('live', 54) ('ment', 54) ('busi', 53) ('like', 53) ('public', 52) ('light', 52) ('rang', 51) ('uniqu', 51)"
journalist,F,5440,"('journal', 2067) ('report', 1859) ('news', 1738) ('magazin', 1524) ('editor', 1452) ('public', 1435) ('write', 1349) ('univers', 1320) ('media', 1302) ('ation', 1055) ('york', 938) ('cover', 855) ('stori', 845) ('publish', 809) ('appear', 740) ('journalist', 717) ('newspap', 709) ('radio', 625) ('press', 614) ('author', 599) ('post', 598) ('travel', 581) ('graduat', 555) ('polit', 552) ('articl', 523) ('degre', 504) ('women', 493) ('daili', 491) ('issu', 489) ('scienc', 487)"
journalist,M,6247,"('journal', 2089) ('report', 1969) ('news', 1922) ('editor', 1773) ('magazin', 1611) ('public', 1459) ('write', 1368) ('media', 1264) ('univers', 1244) ('publish', 1151) ('ation', 1088) ('york', 926) ('newspap', 915) ('cover', 870) ('author', 864) ('appear', 829) ('journalist', 820) ('polit', 758) ('press', 722) ('articl', 717) ('post', 710) ('stori', 674) ('radio', 653) ('busi', 590) ('daili', 566) ('associ', 493) ('review', 480) ('scienc', 465) ('american', 464) ('state', 460)"
model,F,4269,"('model', 2375) ('freeon', 2007) ('bear', 1347) ('place', 1115) ('list', 1070) ('link', 1040) ('rank', 1036) ('galleri', 1029) ('section', 1011) ('fashion', 711) ('magazin', 529) ('video', 499) ('appear', 495) ('beauti', 438) ('girl', 432) ('like', 391) ('career', 390) ('look', 383) ('miss', 320) ('start', 282) ('ation', 263) ('featur', 261) ('face', 256) ('star', 244) ('cover', 239) ('show', 229) ('bodi', 210) ('women', 208) ('take', 203) ('mother', 185)"
model,M,2305,"('model', 1518) ('like', 262) ('look', 222) ('fashion', 209) ('univers', 199) ('interest', 196) ('ation', 176) ('magazin', 162) ('appear', 151) ('ment', 144) ('face', 140) ('bear', 139) ('career', 133) ('take', 129) ('high', 126) ('shoot', 125) ('star', 125) ('data', 116) ('chang', 115) ('public', 112) ('start', 112) ('enc', 103) ('process', 102) ('beauti', 97) ('good', 96) ('busi', 95) ('industri', 95) ('leav', 93) ('featur', 91) ('mathemat', 91)"
nurse,F,10591,"('nurs', 13910) ('medic', 11024) ('hospit', 9023) ('enc', 7081) ('graduat', 6839) ('practition', 6833) ('doctor', 6454) ('inform', 6295) ('honor', 6193) ('ist', 6166) ('have', 6161) ('appoint', 6149) ('divers', 6146) ('affili', 6131) ('cooper', 6108) ('advis', 6020) ('health', 5473) ('care', 4595) ('univers', 4440) ('clinic', 2443) ('patient', 1551) ('famili', 1271) ('join', 1268) ('associ', 1210) ('degre', 1206) ('medicin', 1161) ('scienc', 1159) ('ation', 1152) ('master', 1052) ('memori', 1024)"
nurse,M,1481,"('nurs', 1412) ('medic', 1201) ('hospit', 1111) ('care', 953) ('health', 868) ('enc', 746) ('practition', 720) ('graduat', 677) ('inform', 668) ('doctor', 667) ('affili', 629) ('have', 629) ('appoint', 623) ('ist', 620) ('divers', 617) ('cooper', 616) ('honor', 614) ('advis', 602) ('univers', 438) ('clinic', 319) ('patient', 318) ('provid', 218) ('ice', 185) ('cancer', 181) ('associ', 159) ('medicin', 158) ('ation', 143) ('famili', 142) ('join', 120) ('qualiti', 115)"
painter,F,2877,"('paint', 2411) ('exhibit', 1247) ('artist', 1104) ('art', 1085) ('galleri', 980) ('univers', 922) ('museum', 692) ('york', 559) ('colleg', 474) ('fine', 464) ('ation', 460) ('color', 451) ('draw', 428) ('collect', 404) ('show', 373) ('landscap', 336) ('state', 331) ('inspir', 309) ('natur', 301) ('solo', 291) ('resid', 280) ('institut', 279) ('abstract', 272) ('visual', 267) ('citi', 262) ('graduat', 254) ('explor', 243) ('contemporari', 227) ('cultur', 217) ('subject', 215)"
painter,M,3266,"('paint', 2686) ('exhibit', 1377) ('artist', 1335) ('galleri', 1040) ('art', 956) ('univers', 829) ('museum', 801) ('york', 545) ('collect', 479) ('fine', 466) ('color', 439) ('draw', 434) ('show', 406) ('ation', 395) ('colleg', 384) ('landscap', 377) ('painter', 350) ('state', 332) ('citi', 328) ('contemporari', 294) ('abstract', 289) ('solo', 279) ('visual', 274) ('subject', 256) ('institut', 255) ('inspir', 250) ('figur', 247) ('imag', 245) ('bear', 244) ('portrait', 243)"
paralegal,F,1954,"('litig', 770) ('firm', 752) ('assist', 736) ('legal', 675) ('enc', 661) ('estat', 654) ('univers', 566) ('matter', 518) ('immigr', 507) ('paraleg', 503) ('join', 459) ('attorney', 443) ('case', 413) ('corpor', 362) ('famili', 354) ('area', 348) ('prepar', 343) ('graduat', 326) ('document', 316) ('real', 314) ('plan', 310) ('degre', 307) ('state', 306) ('colleg', 305) ('prior', 298) ('busi', 289) ('employ', 289) ('associ', 285) ('administr', 263) ('commerci', 258)"
paralegal,M,1689,"('litig', 753) ('firm', 727) ('estat', 656) ('matter', 579) ('enc', 428) ('assist', 424) ('corpor', 410) ('real', 389) ('legal', 388) ('busi', 371) ('univers', 370) ('case', 345) ('injuri', 326) ('area', 317) ('commerci', 315) ('liabil', 309) ('claim', 298) ('transact', 295) ('plan', 293) ('join', 287) ('attorney', 254) ('insur', 252) ('immigr', 250) ('employ', 242) ('state', 240) ('involv', 235) ('repres', 233) ('graduat', 212) ('offic', 209) ('handl', 207)"
pastor,F,1226,"('church', 515) ('theolog', 295) ('children', 282) ('ministri', 267) ('christian', 265) ('univers', 263) ('husband', 258) ('women', 251) ('ation', 203) ('pastor', 175) ('famili', 165) ('write', 163) ('passion', 135) ('faith', 128) ('colleg', 120) ('author', 119) ('bibl', 110) ('seminari', 110) ('spiritu', 110) ('degre', 109) ('marri', 106) ('enc', 105) ('help', 102) ('youth', 98) ('graduat', 98) ('enjoy', 95) ('blog', 94) ('read', 90) ('say', 89) ('christ', 89)"
pastor,M,2291,"('church', 1178) ('theolog', 740) ('christian', 579) ('wife', 553) ('pastor', 547) ('univers', 510) ('ministri', 498) ('children', 401) ('seminari', 354) ('colleg', 294) ('author', 277) ('ation', 250) ('faith', 238) ('marri', 234) ('write', 218) ('bibl', 216) ('degre', 214) ('christ', 212) ('graduat', 211) ('famili', 195) ('master', 165) ('state', 164) ('publish', 162) ('help', 162) ('jesu', 162) ('director', 160) ('biblic', 158) ('hold', 157) ('youth', 156) ('mission', 155)"
personal_trainer,F,877,"('fit', 588) ('sport', 330) ('exercis', 295) ('health', 285) ('help', 228) ('physic', 220) ('univers', 182) ('athlet', 165) ('coach', 164) ('weight', 159) ('ation', 147) ('activ', 147) ('passion', 138) ('goal', 135) ('bodi', 132) ('certifi', 124) ('strength', 107) ('enc', 104) ('nutrit', 95) ('women', 94) ('scienc', 92) ('style', 91) ('degre', 89) ('enjoy', 89) ('healthi', 86) ('achiev', 82) ('well', 81) ('run', 73) ('loss', 72) ('instructor', 69)"
personal_trainer,M,1024,"('sport', 670) ('fit', 494) ('exercis', 346) ('athlet', 329) ('univers', 270) ('coach', 257) ('help', 247) ('health', 228) ('physic', 227) ('ation', 206) ('scienc', 172) ('strength', 169) ('weight', 151) ('goal', 146) ('degre', 143) ('enc', 140) ('team', 136) ('activ', 128) ('certifi', 123) ('condit', 122) ('passion', 112) ('colleg', 108) ('anc', 106) ('profession', 106) ('high', 104) ('bodi', 101) ('level', 100) ('injuri', 98) ('state', 97) ('nutrit', 97)"
photographer,F,4378,"('photographi', 3650) ('photograph', 2811) ('imag', 981) ('photo', 981) ('magazin', 683) ('portrait', 670) ('univers', 651) ('captur', 638) ('exhibit', 613) ('natur', 574) ('travel', 562) ('ation', 547) ('art', 534) ('shoot', 506) ('take', 490) ('beauti', 489) ('york', 455) ('wed', 453) ('passion', 445) ('famili', 425) ('publish', 416) ('camera', 411) ('artist', 399) ('style', 393) ('featur', 375) ('graduat', 373) ('colleg', 365) ('galleri', 357) ('subject', 352) ('stori', 326)"
photographer,M,7932,"('photographi', 6290) ('photograph', 5811) ('imag', 2128) ('photo', 2026) ('magazin', 1434) ('shoot', 1219) ('captur', 1154) ('travel', 1059) ('publish', 1007) ('exhibit', 988) ('take', 982) ('portrait', 974) ('camera', 952) ('ation', 927) ('natur', 927) ('landscap', 896) ('univers', 878) ('passion', 791) ('beauti', 783) ('york', 775) ('public', 668) ('pictur', 657) ('wed', 624) ('citi', 615) ('style', 606) ('subject', 605) ('artist', 601) ('start', 598) ('featur', 596) ('light', 595)"
physician,F,5738,"('medic', 5265) ('univers', 5195) ('medicin', 4751) ('health', 4404) ('hospit', 2398) ('clinic', 2331) ('resid', 2083) ('complet', 2071) ('care', 1772) ('physician', 1740) ('patient', 1677) ('degre', 1653) ('assist', 1349) ('graduat', 1239) ('colleg', 1205) ('scienc', 1120) ('affili', 1107) ('pediatr', 1041) ('diseas', 1023) ('ation', 1014) ('fellowship', 950) ('interest', 910) ('director', 847) ('famili', 843) ('board', 753) ('master', 748) ('public', 731) ('children', 728) ('american', 685) ('doctor', 679)"
physician,M,8018,"('medic', 8870) ('univers', 8112) ('medicin', 7379) ('hospit', 4933) ('health', 4603) ('resid', 3345) ('clinic', 3084) ('complet', 2919) ('affili', 2862) ('patient', 2037) ('insur', 2018) ('degre', 2005) ('colleg', 1959) ('blue', 1924) ('graduat', 1913) ('care', 1775) ('physician', 1534) ('diseas', 1360) ('accept', 1327) ('fellowship', 1188) ('director', 1187) ('interest', 1102) ('scienc', 1084) ('board', 1063) ('doctor', 1031) ('ation', 992) ('humana', 990) ('profession', 931) ('addit', 909) ('cross', 876)"
poet,F,2883,"('poetri', 2901) ('publish', 1671) ('poem', 1265) ('review', 1215) ('write', 1122) ('univers', 889) ('press', 842) ('collect', 757) ('journal', 754) ('poet', 719) ('appear', 714) ('literari', 641) ('literatur', 517) ('magazin', 485) ('antholog', 477) ('prize', 456) ('english', 442) ('read', 369) ('american', 354) ('author', 344) ('forthcom', 318) ('women', 316) ('editor', 311) ('stori', 303) ('chap', 303) ('art', 298) ('translat', 294) ('public', 284) ('edit', 275) ('ation', 259)"
poet,M,2643,"('poetri', 2582) ('publish', 1434) ('poem', 1241) ('review', 963) ('write', 838) ('univers', 777) ('poet', 750) ('collect', 705) ('press', 683) ('appear', 513) ('literari', 505) ('journal', 493) ('literatur', 417) ('magazin', 377) ('translat', 367) ('author', 366) ('english', 362) ('american', 347) ('prize', 324) ('read', 318) ('antholog', 290) ('editor', 275) ('stori', 271) ('public', 266) ('edit', 262) ('word', 232) ('art', 229) ('forthcom', 228) ('ation', 209) ('fiction', 205)"
professor,F,17528,"('univers', 19453) ('ation', 8212) ('journal', 5325) ('scienc', 5299) ('interest', 4918) ('social', 4353) ('polit', 4210) ('american', 3708) ('publish', 3409) ('cultur', 3370) ('public', 3322) ('state', 3005) ('degre', 2975) ('histori', 2925) ('econom', 2866) ('ment', 2671) ('polici', 2648) ('institut', 2519) ('women', 2367) ('colleg', 2361) ('ement', 2305) ('cours', 2266) ('technolog', 2220) ('hold', 2205) ('human', 2183) ('gender', 2163) ('health', 2161) ('associ', 2109) ('author', 2105) ('area', 2086)"
professor,M,22772,"('univers', 27233) ('ation', 8503) ('scienc', 8113) ('journal', 7755) ('interest', 6655) ('polit', 5990) ('econom', 5389) ('publish', 4569) ('degre', 4448) ('institut', 4218) ('state', 4023) ('social', 3897) ('american', 3881) ('histori', 3690) ('public', 3614) ('ement', 3563) ('technolog', 3512) ('engin', 3464) ('author', 3275) ('professor', 3209) ('ment', 3167) ('polici', 3040) ('associ', 3013) ('hold', 2921) ('system', 2895) ('depart', 2690) ('inform', 2640) ('area', 2569) ('colleg', 2545) ('cultur', 2502)"
psychologist,F,8377,"('psycholog', 5816) ('univers', 4130) ('health', 3339) ('clinic', 2884) ('children', 2546) ('mental', 2487) ('famili', 2304) ('ation', 2163) ('disord', 1926) ('therapi', 1825) ('behavior', 1815) ('enc', 1694) ('ment', 1561) ('social', 1501) ('individu', 1324) ('treatment', 1274) ('adult', 1267) ('counsel', 1254) ('issu', 1254) ('child', 1245) ('provid', 1245) ('parent', 1195) ('doctor', 1166) ('adolesc', 1136) ('associ', 1129) ('area', 1104) ('complet', 1047) ('interest', 1020) ('profession', 1017) ('cognit', 999)"
psychologist,M,5104,"('psycholog', 3969) ('univers', 2375) ('clinic', 1570) ('health', 1477) ('mental', 1300) ('ation', 1118) ('behavior', 1043) ('famili', 896) ('therapi', 886) ('disord', 863) ('children', 862) ('social', 852) ('ment', 824) ('associ', 777) ('enc', 754) ('author', 697) ('treatment', 673) ('cognit', 648) ('profession', 617) ('consult', 615) ('individu', 596) ('institut', 595) ('psychologist', 592) ('issu', 589) ('counsel', 584) ('area', 583) ('publish', 559) ('interest', 554) ('doctor', 553) ('provid', 540)"
rapper,F,621,"('releas', 117) ('song', 96) ('artist', 72) ('record', 66) ('call', 58) ('come', 58) ('like', 58) ('inspir', 55) ('write', 53) ('young', 51) ('singl', 51) ('say', 51) ('career', 48) ('album', 48) ('video', 43) ('begin', 43) ('make', 39) ('enc', 38) ('style', 37) ('women', 36) ('go', 36) ('start', 34) ('follow', 33) ('famili', 32) ('ation', 32) ('sing', 31) ('bear', 31) ('mean', 30) ('read', 30) ('grow', 30)"
rapper,M,1689,"('releas', 498) ('album', 426) ('record', 325) ('song', 307) ('artist', 266) ('like', 182) ('rapper', 168) ('video', 157) ('style', 149) ('come', 147) ('career', 146) ('singl', 145) ('produc', 141) ('start', 136) ('debut', 136) ('make', 136) ('young', 133) ('featur', 125) ('call', 123) ('lyric', 122) ('say', 120) ('write', 118) ('mixtap', 114) ('track', 109) ('read', 108) ('follow', 105) ('grow', 100) ('go', 98) ('label', 95) ('entertain', 94)"
software_engineer,F,1504,"('engin', 1201) ('univers', 785) ('scienc', 685) ('technolog', 561) ('softwar', 550) ('degre', 399) ('system', 395) ('applic', 391) ('data', 327) ('ation', 302) ('interest', 297) ('ment', 289) ('learn', 234) ('team', 223) ('enc', 221) ('ement', 194) ('industri', 189) ('institut', 181) ('area', 180) ('join', 175) ('product', 169) ('inform', 167) ('master', 166) ('graduat', 163) ('game', 159) ('process', 156) ('electr', 151) ('languag', 147) ('prior', 145) ('hold', 144)"
software_engineer,M,6430,"('engin', 4370) ('univers', 3187) ('softwar', 3108) ('scienc', 2304) ('technolog', 2173) ('system', 2154) ('applic', 1816) ('ment', 1673) ('degre', 1489) ('interest', 1270) ('data', 1219) ('enc', 1052) ('join', 854) ('ation', 814) ('game', 783) ('team', 761) ('ement', 735) ('open', 735) ('comput', 724) ('hold', 717) ('industri', 715) ('area', 708) ('institut', 689) ('electr', 678) ('sourc', 674) ('product', 668) ('base', 659) ('learn', 655) ('prior', 648) ('lead', 632)"
surgeon,F,1266,"('surgeri', 1452) ('medic', 882) ('univers', 761) ('hospit', 514) ('breast', 455) ('complet', 433) ('patient', 417) ('cancer', 400) ('plastic', 368) ('resid', 366) ('surgic', 342) ('surgeon', 309) ('clinic', 297) ('fellowship', 268) ('medicin', 259) ('gener', 252) ('care', 250) ('treatment', 244) ('colleg', 215) ('american', 214) ('degre', 196) ('graduat', 179) ('board', 176) ('diseas', 168) ('reconstruct', 163) ('procedur', 157) ('interest', 157) ('ize', 152) ('health', 147) ('affili', 139)"
surgeon,M,5175,"('surgeri', 7085) ('medic', 4374) ('univers', 3870) ('hospit', 3100) ('complet', 2080) ('resid', 1893) ('medicin', 1842) ('plastic', 1698) ('surgeon', 1594) ('patient', 1398) ('board', 1283) ('surgic', 1272) ('american', 1210) ('clinic', 1203) ('affili', 1140) ('colleg', 1134) ('graduat', 1033) ('fellowship', 1029) ('gener', 984) ('orthopaed', 957) ('orthoped', 937) ('reconstruct', 896) ('degre', 861) ('certifi', 857) ('insur', 826) ('ize', 743) ('societi', 730) ('health', 723) ('procedur', 718) ('treatment', 712)"
teacher,F,6374,"('student', 4253) ('ation', 3719) ('learn', 2155) ('univers', 1946) ('languag', 1524) ('children', 1312) ('english', 1112) ('classroom', 1028) ('read', 963) ('mathemat', 958) ('degre', 917) ('colleg', 867) ('write', 863) ('enc', 844) ('ment', 808) ('profession', 806) ('state', 773) ('literaci', 759) ('elementari', 742) ('master', 739) ('high', 736) ('scienc', 733) ('teach', 722) ('graduat', 698) ('class', 683) ('hold', 677) ('cours', 670) ('curriculum', 647) ('interest', 640) ('earli', 596)"
teacher,M,4473,"('student', 2513) ('ation', 1513) ('learn', 1233) ('univers', 1025) ('profession', 705) ('hold', 661) ('mathemat', 650) ('languag', 610) ('state', 524) ('high', 502) ('english', 501) ('scienc', 486) ('credenti', 479) ('colleg', 477) ('classroom', 447) ('degre', 415) ('class', 403) ('technolog', 400) ('enc', 392) ('cours', 391) ('master', 373) ('write', 364) ('teach', 363) ('interest', 362) ('read', 362) ('children', 357) ('licens', 355) ('ment', 346) ('graduat', 342) ('help', 324)"
yoga_teacher,F,1034,"('yoga', 2474) ('class', 412) ('bodi', 250) ('mind', 244) ('student', 238) ('medit', 229) ('health', 170) ('passion', 155) ('help', 154) ('enc', 143) ('style', 137) ('heal', 137) ('certifi', 134) ('complet', 132) ('breath', 127) ('movement', 123) ('share', 122) ('ation', 120) ('vinyasa', 119) ('shop', 116) ('certif', 112) ('begin', 111) ('hour', 110) ('physic', 106) ('offer', 105) ('bring', 100) ('flow', 100) ('enjoy', 97) ('therapi', 96) ('instructor', 94)"
yoga_teacher,M,265,"('yoga', 576) ('medit', 95) ('student', 64) ('india', 57) ('class', 50) ('mind', 45) ('enc', 43) ('spiritu', 42) ('ation', 37) ('master', 37) ('bodi', 34) ('philosophi', 34) ('tradit', 34) ('ing', 32) ('help', 32) ('heal', 32) ('shop', 31) ('iyengar', 27) ('self', 27) ('teach', 27) ('complet', 26) ('institut', 25) ('retreat', 25) ('studi', 24) ('lead', 24) ('share', 24) ('bring', 24) ('hatha', 22) ('ashtanga', 21) ('style', 21)"
